%YAML 1.1
%TAG !u! tag:unity3d.com,2011:
--- !u!114 &11400000
MonoBehaviour:
  m_ObjectHideFlags: 0
  m_CorrespondingSourceObject: {fileID: 0}
  m_PrefabInstance: {fileID: 0}
  m_PrefabAsset: {fileID: 0}
  m_GameObject: {fileID: 0}
  m_Enabled: 1
  m_EditorHideFlags: 0
  m_Script: {fileID: 11500000, guid: 534e857c15b92dd43bf69826813d0660, type: 3}
  m_Name: Shield
  m_EditorClassIdentifier: 
  itemIcon: {fileID: 0}
  itemName: Shield
  modelPrefab: {fileID: 2449920508647380901, guid: fcb83939c572b4f4d81fed209ddcda98, type: 3}
  isUnarmed: 0
